Midterm
…
#simulate each # of times
seal_data_sim <- seal_data_sim %>%
  crossing(sim = 1:100)  #100 times #repeat many number of times

#add in fitted values, simulate random draws of ages)
seal_data_sim <- seal_data_sim %>%
  mutate(age.days = runif(n(), 958, 8353)) %>% #range of seal ages
  mutate(length.cm = rnorm(n(), intercept + slope*age.days, sigma)) #y = mx+ b

seal_data_sim

## # A tibble: 729,000 x 8
##    slope intercept sigma     n  reps   sim age.days length.cm
##    <dbl>     <dbl> <dbl> <int> <int> <int>    <dbl>     <dbl>
##  1     0        95  5.68     5     1     1    2993.      95.8
##  2     0        95  5.68     5     1     2    4697.     107. 
##  3     0        95  5.68     5     1     3    6291.     103. 
##  4     0        95  5.68     5     1     4    4420.      82.5
##  5     0        95  5.68     5     1     5    7146.      83.2
##  6     0        95  5.68     5     1     6    6704.      94.4
##  7     0        95  5.68     5     1     7    1488.      91.7
##  8     0        95  5.68     5     1     8    8081.      88.7
##  9     0        95  5.68     5     1     9    3524.      95.5
## 10     0        95  5.68     5     1    10    7379.     101. 
## # ... with 728,990 more rows

#fit a model and extracting coefficients
seal_fit <- seal_data_sim %>%
  group_by(slope, intercept, sigma, n, sim) %>%
  nest() %>%
  mutate(mod = purrr::map(data, ~lm(length.cm ~ age.days, data=.))) %>% #adding linear regression
  mutate(coefficients = purrr::map(mod, ~tidy(.))) %>%
  unnest(coefficients) %>%   
  ungroup() %>%   
  filter(term == "age.days")

seal_fit

## # A tibble: 32,400 x 10
##    slope intercept sigma     n   sim term  estimate std.error statistic
##    <dbl>     <dbl> <dbl> <int> <int> <chr>    <dbl>     <dbl>     <dbl>
##  1     0        95  5.68     5     1 age.~  2.82e-4  0.000787     0.358
##  2     0        95  5.68     5     2 age.~  2.41e-3  0.00259      0.930
##  3     0        95  5.68     5     3 age.~  1.34e-3  0.00186      0.723
##  4     0        95  5.68     5     4 age.~ -4.28e-3  0.00298     -1.44 
##  5     0        95  5.68     5     5 age.~ -4.10e-3  0.000942    -4.35 
##  6     0        95  5.68     5     6 age.~ -3.17e-4  0.000718    -0.442
##  7     0        95  5.68     5     7 age.~  1.59e-3  0.00115      1.38 
##  8     0        95  5.68     5     8 age.~ -3.95e-4  0.000885    -0.446
##  9     0        95  5.68     5     9 age.~ -3.42e-4  0.00112     -0.305
## 10     0        95  5.68     5    10 age.~  8.60e-4  0.000683     1.26 
## # ... with 32,390 more rows, and 1 more variable: p.value <dbl>
…
